verify/utb/EF_QSPI_XIP_CACHE_ahbl_tb.vcd
$date
	Sat May 11 11:20:09 2024
$end
$version
	Icarus Verilog
$end
$timescale
	1ps
$end
$scope module EF_QSPI_XIP_CTRL_ahbl_tb $end
$scope module DUV $end
$var wire 32 ! HADDR [31:0] $end
$var wire 1 " HCLK $end
$var wire 32 # HRDATA [31:0] $end
$var wire 1 $ HREADY $end
$var wire 1 % HRESETn $end
$var wire 1 & HSEL $end
$var wire 2 ' HTRANS [1:0] $end
$var wire 1 ( HWRITE $end
$var wire 4 ) din [3:0] $end
$var wire 1 * fr_rd $end
$var wire 1 + valid $end
$var wire 1 , sck $end
$var wire 1 - fr_done $end
$var wire 4 . douten [3:0] $end
$var wire 4 / dout [3:0] $end
$var wire 1 0 doe $end
$var wire 1 1 ce_n $end
$var wire 256 2 c_line [255:0] $end
$var wire 1 3 c_hit $end
$var wire 32 4 c_datao [31:0] $end
$var wire 24 5 c_A [23:0] $end
$var parameter 2 6 IDLE $end
$var parameter 32 7 LINE_SIZE $end
$var parameter 32 8 NUM_LINES $end
$var parameter 32 9 RESET_CYCLES $end
$var parameter 2 : RW $end
$var parameter 2 ; WAIT $end
$var reg 1 < HREADYOUT $end
$var reg 3 = c_wr [2:0] $end
$var reg 32 > cdata [31:0] $end
$var reg 32 ? last_HADDR [31:0] $end
$var reg 1 @ last_HSEL $end
$var reg 2 A last_HTRANS [1:0] $end
$var reg 1 B last_HWRITE $end
$var reg 1 C last_valid $end
$var reg 2 D nstate [1:0] $end
$var reg 2 E state [1:0] $end
$scope module CACHE $end
$var wire 24 F A [23:0] $end
$var wire 1 " clk $end
$var wire 1 3 hit $end
$var wire 1 % rst_n $end
$var wire 1 G wr $end
$var wire 3 H word_offset [2:0] $end
$var wire 15 I tag [14:0] $end
$var wire 5 J offset [4:0] $end
$var wire 256 K line [255:0] $end
$var wire 4 L index [3:0] $end
$var wire 32 M Do [31:0] $end
$var parameter 32 N INDEX_WIDTH $end
$var parameter 32 O LINE_SIZE $end
$var parameter 64 P LINE_WIDTH $end
$var parameter 32 Q LINE_WORDS $end
$var parameter 32 R NUM_LINES $end
$var parameter 32 S OFF_WIDTH $end
$var parameter 34 T TAG_WIDTH $end
$var integer 32 U i [31:0] $end
$upscope $end
$scope module FR $end
$var wire 24 V addr [23:0] $end
$var wire 1 " clk $end
$var wire 4 W din [3:0] $end
$var wire 1 - done $end
$var wire 1 * rd $end
$var wire 4 X rd_din [3:0] $end
$var wire 4 Y rst_din [3:0] $end
$var wire 1 Z rst_douten $end
$var wire 1 % rst_n $end
$var wire 1 , sck $end
$var wire 1 [ rst_sck $end
$var wire 4 \ rst_dout [3:0] $end
$var wire 1 ] rst_done $end
$var wire 1 ^ rst_ce_n $end
$var wire 1 _ rd_sck $end
$var wire 1 ` rd_rd $end
$var wire 1 a rd_douten $end
$var wire 4 b rd_dout [3:0] $end
$var wire 1 c rd_done $end
$var wire 1 d rd_ce_n $end
$var wire 256 e line [255:0] $end
$var wire 1 0 douten $end
$var wire 4 f dout [3:0] $end
$var wire 1 1 ce_n $end
$var parameter 32 g LINE_SIZE $end
$var parameter 32 h NUM_LINES $end
$var parameter 32 i RESET_CYCLES $end
$var reg 1 j d_first $end
$var reg 1 k first $end
$var reg 1 l rd_rd_ $end
$scope module READER $end
$var wire 8 m EBH [7:0] $end
$var wire 24 n addr [23:0] $end
$var wire 1 " clk $end
$var wire 8 o data_0 [7:0] $end
$var wire 8 p data_1 [7:0] $end
$var wire 8 q data_15 [7:0] $end
$var wire 4 r din [3:0] $end
$var wire 1 ` rd $end
$var wire 1 % rst_n $end
$var wire 256 s line [255:0] $end
$var wire 1 a douten $end
$var wire 4 t dout [3:0] $end
$var wire 1 c done $end
$var parameter 1 u IDLE $end
$var parameter 32 v LINE_BYTES $end
$var parameter 64 w LINE_CYCLES $end
$var parameter 32 x LINE_SIZE $end
$var parameter 1 y READ $end
$var reg 1 d ce_n $end
$var reg 8 z counter [7:0] $end
$var reg 1 { first $end
$var reg 1 | nstate $end
$var reg 24 } saddr [23:0] $end
$var reg 1 _ sck $end
$var reg 1 ~ state $end
$scope begin genblk1[0] $end
$var parameter 2 !" i $end
$upscope $end
$scope begin genblk1[1] $end
$var parameter 2 "" i $end
$upscope $end
$scope begin genblk1[2] $end
$var parameter 3 #" i $end
$upscope $end
$scope begin genblk1[3] $end
$var parameter 3 $" i $end
$upscope $end
$scope begin genblk1[4] $end
$var parameter 4 %" i $end
$upscope $end
$scope begin genblk1[5] $end
$var parameter 4 &" i $end
$upscope $end
$scope begin genblk1[6] $end
$var parameter 4 '" i $end
$upscope $end
$scope begin genblk1[7] $end
$var parameter 4 (" i $end
$upscope $end
$scope begin genblk1[8] $end
$var parameter 5 )" i $end
$upscope $end
$scope begin genblk1[9] $end
$var parameter 5 *" i $end
$upscope $end
$scope begin genblk1[10] $end
$var parameter 5 +" i $end
$upscope $end
$scope begin genblk1[11] $end
$var parameter 5 ," i $end
$upscope $end
$scope begin genblk1[12] $end
$var parameter 5 -" i $end
$upscope $end
$scope begin genblk1[13] $end
$var parameter 5 ." i $end
$upscope $end
$scope begin genblk1[14] $end
$var parameter 5 /" i $end
$upscope $end
$scope begin genblk1[15] $end
$var parameter 5 0" i $end
$upscope $end
$scope begin genblk1[16] $end
$var parameter 6 1" i $end
$upscope $end
$scope begin genblk1[17] $end
$var parameter 6 2" i $end
$upscope $end
$scope begin genblk1[18] $end
$var parameter 6 3" i $end
$upscope $end
$scope begin genblk1[19] $end
$var parameter 6 4" i $end
$upscope $end
$scope begin genblk1[20] $end
$var parameter 6 5" i $end
$upscope $end
$scope begin genblk1[21] $end
$var parameter 6 6" i $end
$upscope $end
$scope begin genblk1[22] $end
$var parameter 6 7" i $end
$upscope $end
$scope begin genblk1[23] $end
$var parameter 6 8" i $end
$upscope $end
$scope begin genblk1[24] $end
$var parameter 6 9" i $end
$upscope $end
$scope begin genblk1[25] $end
$var parameter 6 :" i $end
$upscope $end
$scope begin genblk1[26] $end
$var parameter 6 ;" i $end
$upscope $end
$scope begin genblk1[27] $end
$var parameter 6 <" i $end
$upscope $end
$scope begin genblk1[28] $end
$var parameter 6 =" i $end
$upscope $end
$scope begin genblk1[29] $end
$var parameter 6 >" i $end
$upscope $end
$scope begin genblk1[30] $end
$var parameter 6 ?" i $end
$upscope $end
$scope begin genblk1[31] $end
$var parameter 6 @" i $end
$upscope $end
$upscope $end
$scope module RESET $end
$var wire 8 A" C66 [7:0] $end
$var wire 8 B" C99 [7:0] $end
$var wire 1 " clk $end
$var wire 4 C" din [3:0] $end
$var wire 1 Z douten $end
$var wire 1 % rst_n $end
$var wire 1 [ sck $end
$var wire 1 * start $end
$var wire 4 D" dout [3:0] $end
$var wire 1 ] done $end
$var wire 1 E" d_o $end
$var wire 1 ^ ce_n $end
$var parameter 32 F" RESET_CYCLES $end
$var reg 1 G" ck $end
$var reg 12 H" counter [11:0] $end
$var reg 1 I" idle $end
$upscope $end
$upscope $end
$upscope $end
$upscope $end
$enddefinitions $end
$comment Show the parameter values. $end
$dumpall
b1111100111 F"
b11111 @"
b11110 ?"
b11101 >"
b11100 ="
b11011 <"
b11010 ;"
b11001 :"
b11000 9"
b10111 8"
b10110 7"
b10101 6"
b10100 5"
b10011 4"
b10010 3"
b10001 2"
b10000 1"
b1111 0"
b1110 /"
b1101 ."
b1100 -"
b1011 ,"
b1010 +"
b1001 *"
b1000 )"
b111 ("
b110 '"
b101 &"
b100 %"
b11 $"
b10 #"
b1 ""
b0 !"
1y
b100000 x
b100000000 w
b100000 v
0u
b1111100111 i
b10000 h
b100000 g
b1111 T
b101 S
b10000 R
b1000 Q
b100000000 P
b100000 O
b100 N
b1 ;
b10 :
b1111100111 9
b10000 8
b100000 7
b0 6
$end
#0
$dumpvars
1I"
b0 H"
0G"
0E"
b0 D"
bz C"
b10011001 B"
b1100110 A"
0~
b0 }
0|
1{
b0 z
b1 t
bx s
b0 r
bx q
bx p
bx o
b0 n
b11101011 m
0l
1k
1j
b0 f
bx e
1d
0c
b1 b
1a
0`
0_
1^
0]
b0 \
0[
1Z
bz Y
b0 X
b0 W
b0 V
b10000 U
bx M
b0 L
bx K
b0 J
b0 I
b0 H
0G
b0 F
b0 E
b0 D
0C
0B
b0 A
0@
b0 ?
bx >
b0 =
1<
b0 5
bx 4
03
bx 2
11
10
b0 /
b1111 .
0-
0,
0+
0*
b0 )
0(
b0 '
0&
0%
1$
bx #
0"
b0 !
$end
#10000
b10000 U
1"
#20000
0"
#30000
b10000 U
1"
#40000
0"
#50000
b10000 U
1"
#60000
0"
#70000
b10000 U
1"
#80000
0"
#90000
b10000 U
1"
#100000
0"
#110000
b10000 U
1"
#120000
0"
#130000
1%
b10000 U
1"
#140000
0"
#150000
1G"
1"
#160000
0"
#170000
0G"
1"
#180000
0"
#190000
1G"
1"
#200000
0"
#210000
0G"
1"
#220000
0"
#230000
1G"
1"
#231000
1*
b1 D
1+
b10 '
1&
#240000
0"
#250000
0$
0<
b1 E
1C
b10 A
1@
0G"
0I"
0*
b1 D
0+
b0 '
0&
1"
#260000
0"
#270000
1G"
1"
#280000
0"
#290000
01
0^
b1 H"
0G"
1"
#300000
0"
#310000
1,
1[
1G"
1"
#320000
0"
#330000
b1 X
b1 r
b1 )
b1 W
b1 /
b1 f
0,
b1 \
b1 D"
1E"
0[
b10 H"
0G"
1"
#340000
0"
#350000
1,
1[
1G"
1"
#360000
0"
#370000
0,
0[
b11 H"
0G"
1"
#380000
0"
#390000
1,
1[
1G"
1"
#400000
0"
#410000
b0 X
b0 r
b0 )
b0 W
b0 /
b0 f
0,
b0 \
b0 D"
0E"
0[
b100 H"
0G"
1"
#420000
0"
#430000
1,
1[
1G"
1"
#440000
0"
#450000
0,
0[
b101 H"
0G"
1"
#460000
0"
#470000
1,
1[
1G"
1"
#480000
0"
#490000
b1 X
b1 r
b1 )
b1 W
b1 /
b1 f
0,
b1 \
b1 D"
1E"
0[
b110 H"
0G"
1"
#500000
0"
#510000
1,
1[
1G"
1"
#520000
0"
#530000
0,
0[
b111 H"
0G"
1"
#540000
0"
#550000
1,
1[
1G"
1"
#560000
0"
#570000
b0 X
b0 r
b0 )
b0 W
b0 /
b0 f
0,
b0 \
b0 D"
0E"
0[
b1000 H"
0G"
1"
#580000
0"
#590000
1,
1[
1G"
1"
#600000
0"
#610000
11
b0 X
b0 r
b0 )
b0 W
1^
b0 /
b0 f
0,
b0 \
b0 D"
0E"
0[
b1001 H"
0G"
1"
#620000
0"
#630000
1G"
1"
#640000
0"
#650000
b1010 H"
0G"
1"
#660000
0"
#670000
1G"
1"
#680000
0"
#690000
b1011 H"
0G"
1"
#700000
0"
#710000
1G"
1"
#720000
0"
#730000
b1 X
b1 r
b1 )
b1 W
01
b1 /
b1 f
0^
b1 \
b1 D"
1E"
b1100 H"
0G"
1"
#740000
0"
#750000
1,
1[
1G"
1"
#760000
0"
#770000
b0 X
b0 r
b0 )
b0 W
b0 /
b0 f
b0 \
b0 D"
0E"
0,
0[
b1101 H"
0G"
1"
#780000
0"
#790000
1,
1[
1G"
1"
#800000
0"
#810000
0,
0[
b1110 H"
0G"
1"
#820000
0"
#830000
1,
1[
1G"
1"
#840000
0"
#850000
b1 X
b1 r
b1 )
b1 W
b1 /
b1 f
b1 \
b1 D"
1E"
0,
0[
b1111 H"
0G"
1"
#860000
0"
#870000
1,
1[
1G"
1"
#880000
0"
#890000
0,
0[
b10000 H"
0G"
1"
#900000
0"
#910000
1,
1[
1G"
1"
#920000
0"
#930000
b0 X
b0 r
b0 )
b0 W
b0 /
b0 f
b0 \
b0 D"
0E"
0,
0[
b10001 H"
0G"
1"
#940000
0"
#950000
1,
1[
1G"
1"
#960000
0"
#970000
0,
0[
b10010 H"
0G"
1"
#980000
0"
#990000
1,
1[
1G"
1"
#1000000
0"
#1010000
b1 X
b1 r
b1 )
b1 W
b1 /
b1 f
b1 \
b1 D"
1E"
0,
0[
b10011 H"
0G"
1"
#1020000
0"
#1030000
1,
1[
1G"
1"
#1040000
0"
#1050000
11
b0 X
b0 r
b0 )
b0 W
1^
b0 /
b0 f
b0 \
b0 D"
0E"
0,
0[
b10100 H"
0G"
1"
#1060000
0"
#1070000
1G"
1"
#1080000
0"
#1090000
b10101 H"
0G"
1"
#1100000
0"
#1110000
1G"
1"
#1120000
0"
#1130000
b10110 H"
0G"
1"
#1140000
0"
#1150000
1G"
1"
#1160000
0"
#1170000
b10111 H"
0G"
1"
#1180000
0"
#1190000
1G"
1"
#1200000
0"
#1210000
b11000 H"
0G"
1"
#1220000
0"
#1230000
1G"
1"
#1240000
0"
#1250000
b11001 H"
0G"
1"
#1260000
0"
#1270000
1G"
1"
#1280000
0"
#1290000
b11010 H"
0G"
1"
#1300000
0"
#1310000
1G"
1"
#1320000
0"
#1330000
b11011 H"
0G"
1"
#1340000
0"
#1350000
1G"
1"
#1360000
0"
#1370000
b11100 H"
0G"
1"
#1380000
0"
#1390000
1G"
1"
#1400000
0"
#1410000
b11101 H"
0G"
1"
#1420000
0"
#1430000
1G"
1"
#1440000
0"
#1450000
b11110 H"
0G"
1"
#1460000
0"
#1470000
1G"
1"
#1480000
0"
#1490000
b11111 H"
0G"
1"
#1500000
0"
#1510000
1G"
1"
#1520000
0"
#1530000
b100000 H"
0G"
1"
#1540000
0"
#1550000
1G"
1"
#1560000
0"
#1570000
b100001 H"
0G"
1"
#1580000
0"
#1590000
1G"
1"
#1600000
0"
#1610000
b100010 H"
0G"
1"
#1620000
0"
#1630000
1G"
1"
#1640000
0"
#1650000
b100011 H"
0G"
1"
#1660000
0"
#1670000
1G"
1"
#1680000
0"
#1690000
b100100 H"
0G"
1"
#1700000
0"
#1710000
1G"
1"
#1720000
0"
#1730000
b100101 H"
0G"
1"
#1740000
0"
#1750000
1G"
1"
#1760000
0"
#1770000
b100110 H"
0G"
1"
#1780000
0"
#1790000
1G"
1"
#1800000
0"
#1810000
b100111 H"
0G"
1"
#1820000
0"
#1830000
1G"
1"
#1840000
0"
#1850000
b101000 H"
0G"
1"
#1860000
0"
#1870000
1G"
1"
#1880000
0"
#1890000
b101001 H"
0G"
1"
#1900000
0"
#1910000
1G"
1"
#1920000
0"
#1930000
b101010 H"
0G"
1"
#1940000
0"
#1950000
1G"
1"
#1960000
0"
#1970000
b101011 H"
0G"
1"
#1980000
0"
#1990000
1G"
1"
#2000000
0"
#2010000
b101100 H"
0G"
1"
#2020000
0"
#2030000
1G"
1"
#2040000
0"
#2050000
b101101 H"
0G"
1"
#2060000
0"
#2070000
1G"
1"
#2080000
0"
#2090000
b101110 H"
0G"
1"
#2100000
0"
#2110000
1G"
1"
#2120000
0"
#2130000
b101111 H"
0G"
1"
#2140000
0"
#2150000
1G"
1"
#2160000
0"
#2170000
b110000 H"
0G"
1"
#2180000
0"
#2190000
1G"
1"
#2200000
0"
#2210000
b110001 H"
0G"
1"
#2220000
0"
#2230000
1G"
1"
#2240000
0"
#2250000
b110010 H"
0G"
1"
#2260000
0"
#2270000
1G"
1"
#2280000
0"
#2290000
b110011 H"
0G"
1"
#2300000
0"
#2310000
1G"
1"
#2320000
0"
#2330000
b110100 H"
0G"
1"
#2340000
0"
#2350000
1G"
1"
#2360000
0"
#2370000
b110101 H"
0G"
1"
#2380000
0"
#2390000
1G"
1"
#2400000
0"
#2410000
b110110 H"
0G"
1"
#2420000
0"
#2430000
1G"
1"
#2440000
0"
#2450000
b110111 H"
0G"
1"
#2460000
0"
#2470000
1G"
1"
#2480000
0"
#2490000
b111000 H"
0G"
1"
#2500000
0"
#2510000
1G"
1"
#2520000
0"
#2530000
b111001 H"
0G"
1"
#2540000
0"
#2550000
1G"
1"
#2560000
0"
#2570000
b111010 H"
0G"
1"
#2580000
0"
#2590000
1G"
1"
#2600000
0"
#2610000
b111011 H"
0G"
1"
#2620000
0"
#2630000
1G"
1"
#2640000
0"
#2650000
b111100 H"
0G"
1"
#2660000
0"
#2670000
1G"
1"
#2680000
0"
#2690000
b111101 H"
0G"
1"
#2700000
0"
#2710000
1G"
1"
#2720000
0"
#2730000
b111110 H"
0G"
1"
#2740000
0"
#2750000
1G"
1"
#2760000
0"
#2770000
b111111 H"
0G"
1"
#2780000
0"
#2790000
1G"
1"
#2800000
0"
#2810000
b1000000 H"
0G"
1"
#2820000
0"
#2830000
1G"
1"
#2840000
0"
#2850000
b1000001 H"
0G"
1"
#2860000
0"
#2870000
1G"
1"
#2880000
0"
#2890000
b1000010 H"
0G"
1"
#2900000
0"
#2910000
1G"
1"
#2920000
0"
#2930000
b1000011 H"
0G"
1"
#2940000
0"
#2950000
1G"
1"
#2960000
0"
#2970000
b1000100 H"
0G"
1"
#2980000
0"
#2990000
1G"
1"
#3000000
0"
#3010000
b1000101 H"
0G"
1"
#3020000
0"
#3030000
1G"
1"
#3040000
0"
#3050000
b1000110 H"
0G"
1"
#3060000
0"
#3070000
1G"
1"
#3080000
0"
#3090000
b1000111 H"
0G"
1"
#3100000
0"
#3110000
1G"
1"
#3120000
0"
#3130000
b1001000 H"
0G"
1"
#3140000
0"
#3150000
1G"
1"
#3160000
0"
#3170000
b1001001 H"
0G"
1"
#3180000
0"
#3190000
1G"
1"
#3200000
0"
#3210000
b1001010 H"
0G"
1"
#3220000
0"
#3230000
1G"
1"
#3240000
0"
#3250000
b1001011 H"
0G"
1"
#3260000
0"
#3270000
1G"
1"
#3280000
0"
#3290000
b1001100 H"
0G"
1"
#3300000
0"
#3310000
1G"
1"
#3320000
0"
#3330000
b1001101 H"
0G"
1"
#3340000
0"
#3350000
1G"
1"
#3360000
0"
#3370000
b1001110 H"
0G"
1"
#3380000
0"
#3390000
1G"
1"
#3400000
0"
#3410000
b1001111 H"
0G"
1"
#3420000
0"
#3430000
1G"
1"
#3440000
0"
#3450000
b1010000 H"
0G"
1"
#3460000
0"
#3470000
1G"
1"
#3480000
0"
#3490000
b1010001 H"
0G"
1"
#3500000
0"
#3510000
1G"
1"
#3520000
0"
#3530000
b1010010 H"
0G"
1"
#3540000
0"
#3550000
1G"
1"
#3560000
0"
#3570000
b1010011 H"
0G"
1"
#3580000
0"
#3590000
1G"
1"
#3600000
0"
#3610000
b1010100 H"
0G"
1"
#3620000
0"
#3630000
1G"
1"
#3640000
0"
#3650000
b1010101 H"
0G"
1"
#3660000
0"
#3670000
1G"
1"
#3680000
0"
#3690000
b1010110 H"
0G"
1"
#3700000
0"
#3710000
1G"
1"
#3720000
0"
#3730000
b1010111 H"
0G"
1"
#3740000
0"
#3750000
1G"
1"
#3760000
0"
#3770000
b1011000 H"
0G"
1"
#3780000
0"
#3790000
1G"
1"
#3800000
0"
#3810000
b1011001 H"
0G"
1"
#3820000
0"
#3830000
1G"
1"
#3840000
0"
#3850000
b1011010 H"
0G"
1"
#3860000
0"
#3870000
1G"
1"
#3880000
0"
#3890000
b1011011 H"
0G"
1"
#3900000
0"
#3910000
1G"
1"
#3920000
0"
#3930000
b1011100 H"
0G"
1"
#3940000
0"
#3950000
1G"
1"
#3960000
0"
#3970000
b1011101 H"
0G"
1"
#3980000
0"
#3990000
1G"
1"
#4000000
0"
#4010000
b1011110 H"
0G"
1"
#4020000
0"
#4030000
1G"
1"
#4040000
0"
#4050000
b1011111 H"
0G"
1"
#4060000
0"
#4070000
1G"
1"
#4080000
0"
#4090000
b1100000 H"
0G"
1"
#4100000
0"
#4110000
1G"
1"
#4120000
0"
#4130000
b1100001 H"
0G"
1"
#4140000
0"
#4150000
1G"
1"
#4160000
0"
#4170000
b1100010 H"
0G"
1"
#4180000
0"
#4190000
1G"
1"
#4200000
0"
#4210000
b1100011 H"
0G"
1"
#4220000
0"
#4230000
1G"
1"
#4240000
0"
#4250000
b1100100 H"
0G"
1"
#4260000
0"
#4270000
1G"
1"
#4280000
0"
#4290000
b1100101 H"
0G"
1"
#4300000
0"
#4310000
1G"
1"
#4320000
0"
#4330000
b1100110 H"
0G"
1"
#4340000
0"
#4350000
1G"
1"
#4360000
0"
#4370000
b1100111 H"
0G"
1"
#4380000
0"
#4390000
1G"
1"
#4400000
0"
#4410000
b1101000 H"
0G"
1"
#4420000
0"
#4430000
1G"
1"
#4440000
0"
#4450000
b1101001 H"
0G"
1"
#4460000
0"
#4470000
1G"
1"
#4480000
0"
#4490000
b1101010 H"
0G"
1"
#4500000
0"
#4510000
1G"
1"
#4520000
0"
#4530000
b1101011 H"
0G"
1"
#4540000
0"
#4550000
1G"
1"
#4560000
0"
#4570000
b1101100 H"
0G"
1"
#4580000
0"
#4590000
1G"
1"
#4600000
0"
#4610000
b1101101 H"
0G"
1"
#4620000
0"
#4630000
1G"
1"
#4640000
0"
#4650000
b1101110 H"
0G"
1"
#4660000
0"
#4670000
1G"
1"
#4680000
0"
#4690000
b1101111 H"
0G"
1"
#4700000
0"
#4710000
1G"
1"
#4720000
0"
#4730000
b1110000 H"
0G"
1"
#4740000
0"
#4750000
1G"
1"
#4760000
0"
#4770000
b1110001 H"
0G"
1"
#4780000
0"
#4790000
1G"
1"
#4800000
0"
#4810000
b1110010 H"
0G"
1"
#4820000
0"
#4830000
1G"
1"
#4840000
0"
#4850000
b1110011 H"
0G"
1"
#4860000
0"
#4870000
1G"
1"
#4880000
0"
#4890000
b1110100 H"
0G"
1"
#4900000
0"
#4910000
1G"
1"
#4920000
0"
#4930000
b1110101 H"
0G"
1"
#4940000
0"
#4950000
1G"
1"
#4960000
0"
#4970000
b1110110 H"
0G"
1"
#4980000
0"
#4990000
1G"
1"
#5000000
0"
#5010000
b1110111 H"
0G"
1"
#5020000
0"
#5030000
1G"
1"
#5040000
0"
#5050000
b1111000 H"
0G"
1"
#5060000
0"
#5070000
1G"
1"
#5080000
0"
#5090000
b1111001 H"
0G"
1"
#5100000
0"
#5110000
1G"
1"
#5120000
0"
#5130000
b1111010 H"
0G"
1"
#5140000
0"
#5150000
1G"
1"
#5160000
0"
#5170000
b1111011 H"
0G"
1"
#5180000
0"
#5190000
1G"
1"
#5200000
0"
#5210000
b1111100 H"
0G"
1"
#5220000
0"
#5230000
1G"
1"
#5240000
0"
#5250000
b1111101 H"
0G"
1"
#5260000
0"
#5270000
1G"
1"
#5280000
0"
#5290000
b1111110 H"
0G"
1"
#5300000
0"
#5310000
1G"
1"
#5320000
0"
#5330000
b1111111 H"
0G"
1"
#5340000
0"
#5350000
1G"
1"
#5360000
0"
#5370000
b10000000 H"
0G"
1"
#5380000
0"
#5390000
1G"
1"
#5400000
0"
#5410000
b10000001 H"
0G"
1"
#5420000
0"
#5430000
1G"
1"
#5440000
0"
#5450000
b10000010 H"
0G"
1"
#5460000
0"
#5470000
1G"
1"
#5480000
0"
#5490000
b10000011 H"
0G"
1"
#5500000
0"
#5510000
1G"
1"
#5520000
0"
#5530000
b10000100 H"
0G"
1"
#5540000
0"
#5550000
1G"
1"
#5560000
0"
#5570000
b10000101 H"
0G"
1"
#5580000
0"
#5590000
1G"
1"
#5600000
0"
#5610000
b10000110 H"
0G"
1"
#5620000
0"
#5630000
1G"
1"
#5640000
0"
#5650000
b10000111 H"
0G"
1"
#5660000
0"
#5670000
1G"
1"
#5680000
0"
#5690000
b10001000 H"
0G"
1"
#5700000
0"
#5710000
1G"
1"
#5720000
0"
#5730000
b10001001 H"
0G"
1"
#5740000
0"
#5750000
1G"
1"
#5760000
0"
#5770000
b10001010 H"
0G"
1"
#5780000
0"
#5790000
1G"
1"
#5800000
0"
#5810000
b10001011 H"
0G"
1"
#5820000
0"
#5830000
1G"
1"
#5840000
0"
#5850000
b10001100 H"
0G"
1"
#5860000
0"
#5870000
1G"
1"
#5880000
0"
#5890000
b10001101 H"
0G"
1"
#5900000
0"
#5910000
1G"
1"
#5920000
0"
#5930000
b10001110 H"
0G"
1"
#5940000
0"
#5950000
1G"
1"
#5960000
0"
#5970000
b10001111 H"
0G"
1"
#5980000
0"
#5990000
1G"
1"
#6000000
0"
#6010000
b10010000 H"
0G"
1"
#6020000
0"
#6030000
1G"
1"
#6040000
0"
#6050000
b10010001 H"
0G"
1"
#6060000
0"
#6070000
1G"
1"
#6080000
0"
#6090000
b10010010 H"
0G"
1"
#6100000
0"
#6110000
1G"
1"
#6120000
0"
#6130000
b10010011 H"
0G"
1"
#6140000
0"
#6150000
1G"
1"
#6160000
0"
#6170000
b10010100 H"
0G"
1"
#6180000
0"
#6190000
1G"
1"
#6200000
0"
#6210000
b10010101 H"
0G"
1"
#6220000
0"
#6230000
1G"
1"
#6240000
0"
#6250000
b10010110 H"
0G"
1"
#6260000
0"
#6270000
1G"
1"
#6280000
0"
#6290000
b10010111 H"
0G"
1"
#6300000
0"
#6310000
1G"
1"
#6320000
0"
#6330000
b10011000 H"
0G"
1"
#6340000
0"
#6350000
1G"
1"
#6360000
0"
#6370000
b10011001 H"
0G"
1"
#6380000
0"
#6390000
1G"
1"
#6400000
0"
#6410000
b10011010 H"
0G"
1"
#6420000
0"
#6430000
1G"
1"
#6440000
0"
#6450000
b10011011 H"
0G"
1"
#6460000
0"
#6470000
1G"
1"
#6480000
0"
#6490000
b10011100 H"
0G"
1"
#6500000
0"
#6510000
1G"
1"
#6520000
0"
#6530000
b10011101 H"
0G"
1"
#6540000
0"
#6550000
1G"
1"
#6560000
0"
#6570000
b10011110 H"
0G"
1"
#6580000
0"
#6590000
1G"
1"
#6600000
0"
#6610000
b10011111 H"
0G"
1"
#6620000
0"
#6630000
1G"
1"
#6640000
0"
#6650000
b10100000 H"
0G"
1"
#6660000
0"
#6670000
1G"
1"
#6680000
0"
#6690000
b10100001 H"
0G"
1"
#6700000
0"
#6710000
1G"
1"
#6720000
0"
#6730000
b10100010 H"
0G"
1"
#6740000
0"
#6750000
1G"
1"
#6760000
0"
#6770000
b10100011 H"
0G"
1"
#6780000
0"
#6790000
1G"
1"
#6800000
0"
#6810000
b10100100 H"
0G"
1"
#6820000
0"
#6830000
1G"
1"
#6840000
0"
#6850000
b10100101 H"
0G"
1"
#6860000
0"
#6870000
1G"
1"
#6880000
0"
#6890000
b10100110 H"
0G"
1"
#6900000
0"
#6910000
1G"
1"
#6920000
0"
#6930000
b10100111 H"
0G"
1"
#6940000
0"
#6950000
1G"
1"
#6960000
0"
#6970000
b10101000 H"
0G"
1"
#6980000
0"
#6990000
1G"
1"
#7000000
0"
#7010000
b10101001 H"
0G"
1"
#7020000
0"
#7030000
1G"
1"
#7040000
0"
#7050000
b10101010 H"
0G"
1"
#7060000
0"
#7070000
1G"
1"
#7080000
0"
#7090000
b10101011 H"
0G"
1"
#7100000
0"
#7110000
1G"
1"
#7120000
0"
#7130000
b10101100 H"
0G"
1"
#7140000
0"
#7150000
1G"
1"
#7160000
0"
#7170000
b10101101 H"
0G"
1"
#7180000
0"
#7190000
1G"
1"
#7200000
0"
#7210000
b10101110 H"
0G"
1"
#7220000
0"
#7230000
1G"
1"
#7240000
0"
#7250000
b10101111 H"
0G"
1"
#7260000
0"
#7270000
1G"
1"
#7280000
0"
#7290000
b10110000 H"
0G"
1"
#7300000
0"
#7310000
1G"
1"
#7320000
0"
#7330000
b10110001 H"
0G"
1"
#7340000
0"
#7350000
1G"
1"
#7360000
0"
#7370000
b10110010 H"
0G"
1"
#7380000
0"
#7390000
1G"
1"
#7400000
0"
#7410000
b10110011 H"
0G"
1"
#7420000
0"
#7430000
1G"
1"
#7440000
0"
#7450000
b10110100 H"
0G"
1"
#7460000
0"
#7470000
1G"
1"
#7480000
0"
#7490000
b10110101 H"
0G"
1"
#7500000
0"
#7510000
1G"
1"
#7520000
0"
#7530000
b10110110 H"
0G"
1"
#7540000
0"
#7550000
1G"
1"
#7560000
0"
#7570000
b10110111 H"
0G"
1"
#7580000
0"
#7590000
1G"
1"
#7600000
0"
#7610000
b10111000 H"
0G"
1"
#7620000
0"
#7630000
1G"
1"
#7640000
0"
#7650000
b10111001 H"
0G"
1"
#7660000
0"
#7670000
1G"
1"
#7680000
0"
#7690000
b10111010 H"
0G"
1"
#7700000
0"
#7710000
1G"
1"
#7720000
0"
#7730000
b10111011 H"
0G"
1"
#7740000
0"
#7750000
1G"
1"
#7760000
0"
#7770000
b10111100 H"
0G"
1"
#7780000
0"
#7790000
1G"
1"
#7800000
0"
#7810000
b10111101 H"
0G"
1"
#7820000
0"
#7830000
1G"
1"
#7840000
0"
#7850000
b10111110 H"
0G"
1"
#7860000
0"
#7870000
1G"
1"
#7880000
0"
#7890000
b10111111 H"
0G"
1"
#7900000
0"
#7910000
1G"
1"
#7920000
0"
#7930000
b11000000 H"
0G"
1"
#7940000
0"
#7950000
1G"
1"
#7960000
0"
#7970000
b11000001 H"
0G"
1"
#7980000
0"
#7990000
1G"
1"
#8000000
0"
#8010000
b11000010 H"
0G"
1"
#8020000
0"
#8030000
1G"
1"
#8040000
0"
#8050000
b11000011 H"
0G"
1"
#8060000
0"
#8070000
1G"
1"
#8080000
0"
#8090000
b11000100 H"
0G"
1"
#8100000
0"
#8110000
1G"
1"
#8120000
0"
#8130000
b11000101 H"
0G"
1"
#8140000
0"
#8150000
1G"
1"
#8160000
0"
#8170000
b11000110 H"
0G"
1"
#8180000
0"
#8190000
1G"
1"
#8200000
0"
#8210000
b11000111 H"
0G"
1"
#8220000
0"
#8230000
1G"
1"
#8240000
0"
#8250000
b11001000 H"
0G"
1"
#8260000
0"
#8270000
1G"
1"
#8280000
0"
#8290000
b11001001 H"
0G"
1"
#8300000
0"
#8310000
1G"
1"
#8320000
0"
#8330000
b11001010 H"
0G"
1"
#8340000
0"
#8350000
1G"
1"
#8360000
0"
#8370000
b11001011 H"
0G"
1"
#8380000
0"
#8390000
1G"
1"
#8400000
0"
#8410000
b11001100 H"
0G"
1"
#8420000
0"
#8430000
1G"
1"
#8440000
0"
#8450000
b11001101 H"
0G"
1"
